[
        {
            "id": "03092022114223",
            "title": "HUAWEI Nova 5T",
            "img": "./product-photo/huawei-nova-5t.jpg",
            "color": "#0300aa",
            "price": 12150,
            "isFavorite": false
        },

        {
            "id": "03092022114325",
            "title": "HUAWEI Nova 2",
            "img": "./product-photo/huawei-nova2.jpg",
            "price": 10150,
            "color":"#2a6096",
            "isFavorite": false
        },
 
        {
            "id": "03092022114326",
            "title": "HUAWEI P Smart",
            "img": "./product-photo/huawei-p-smart.jpg",
            "color": "#40d6cf",
            "price": 10000,
            "isFavorite": false
        },

        {
            "id": "03092022114329",
            "title": "HUAWEI P30",
            "img": "./product-photo/huawei-p30.jpg",
            "color": "#00d9ff",
            "price": 11050,
            "isFavorite": false
        },

        {
            "id": "03092022114400",
            "title": "HUAWEI P40",
            "img": "./product-photo/huawei-p40.jpg",
            "color": "#f1c5ff",
            "price": 9150,
            "isFavorite": false
        },

        {
            "id": "03092022114430",
            "title": "HUAWEI Y5-2018",
            "img": "./product-photo/huawei-y5-2018.jpg",
            "color": "#000",
            "price": 12150,
            "isFavorite": false
        },

        {
            "id": "03092022114443",
            "title": "HUAWEI P50",
            "img": "./product-photo/huawei.jpg",
            "color": "#7d37ffbb",
            "price": 8170,
            "isFavorite": false
        },

        {
            "id": "03092022114551",
            "title": "Samsung GALAXY A30s",
            "img": "./product-photo/samsung-galaxy-a30s.jpg",
            "color": "#40d6cf",
            "price": 12150,
            "isFavorite": false
        },

        {
            "id": "03092022114602",
            "title": "Samsung GALAXY A50",
            "img": "./product-photo/samsung-galaxy-a50.jpg",
            "color": "#c8b8ff",
            "price": 12150,
            "isFavorite": false
        },

        {
            "id": "03092022114630",
            "title": "Samsung GALAXY S6",
            "img": "./product-photo/samsung-galaxy-s6.jpg",
            "color": "#fff7cb",
            "price": 12150,
            "isFavorite": false
        }
]